{
  "$schema": "https://developer.microsoft.com/json-schemas/spfx-build/config.2.0.schema.json",
  "version": "2.0",
  "bundles": {
    "survey-poll-web-part": {
      "components": [
        {
          "entrypoint": "./lib/webparts/surveyPoll/SurveyPollWebPart.js",
          "manifest": "./src/webparts/surveyPoll/SurveyPollWebPart.manifest.json"
        }
      ]
    }
  },
  "externals": {
    "jquery": {
      "path": "node_modules/jquery/dist/jquery.min.js",
      "globalName": "jQuery"
    },
    "popper.js": {
      "path": "node_modules/popper.js/dist/popper.min.js",
      "globalName": "Popper",
      "globalDependencies": [
        "jquery"
      ]
    },
    "bootstrap": {
      "path": "node_modules/bootstrap/dist/js/bootstrap.min.js",
      "globalName": "jQuery",
      "globalDependencies": [
        "jquery",
        "popper.js"
      ]
    },

    "sp-client-custom-fields": "node_modules/sp-client-custom-fields/dist/sp-client-custom-fields.bundle.js"
  },
  "localizedResources": {
    "SurveyPollWebPartStrings": "lib/webparts/surveyPoll/loc/{locale}.js"
  }
}
